[
    {
        "id" : 84,
        "is_active" : true,
        "is_available" : true,
        "lat" : 37.779816,
        "license_plate_number" : "7LVF807",
        "lng" : -122.395447,
        "pool" : "active",
        "remaining_mileage" : 91,
        "remaining_range_in_meters" : 146000,
        "transmission_mode" : "park",
        "vehicle_make" : "Toyota",
        "vehicle_pic" : "/media/uploads/vehicles/display_pics/739c2443-5c6b-405a-9eb1-b70f30debe34.png",
        "vehicle_pic_absolute_url" : "https://d16vxu8318b851.cloudfront.net/uploads/vehicles/display_pics/739c2443-5c6b-405a-9eb1-b70f30debe34.png",
        "vehicle_type" : "Innova Crysta",
        "vehicle_type_id" : 11,
        "seating_capasity" : 6
    },
    {
        "id" : 1102,
        "is_active" : true,
        "is_available" : true,
        "lat" : 40.8088935,
        "license_plate_number" : "7LKJ997",
        "lng" : -73.9521886,
        "pool" : "active",
        "remaining_mileage" : 37,
        "remaining_range_in_meters" : 59000,
        "transmission_mode" : "park",
        "vehicle_make" : "BMW",
        "vehicle_pic" : "/media/uploads/vehicles/display_pics/5b96f5f8-2342-4448-8bfc-745275389988.png",
        "vehicle_pic_absolute_url" : "https://d16vxu8318b851.cloudfront.net/uploads/vehicles/display_pics/5b96f5f8-2342-4448-8bfc-745275389988.png",
        "vehicle_type" : "BMW i3 Van",
        "vehicle_type_id" : 11,
        "seating_capasity" : 8
    },
    {
        "id" : 4770,
        "is_active" : true,
        "is_available" : false,
        "license_plate_number" : "plate627",
        "pool" : "active",
        "remaining_mileage" : 0,
        "vehicle_make" : "Skoda",
        "vehicle_pic" : "/media/uploads/vehicles/display_pics/739c2443-5c6b-405a-9eb1-b70f30debe34.png",
        "vehicle_pic_absolute_url" : "https://d16vxu8318b851.cloudfront.net/uploads/vehicles/display_pics/739c2443-5c6b-405a-9eb1-b70f30debe34.png",
        "vehicle_type" : "Skoda Rapid",
        "vehicle_type_id" : 11,
        "seating_capasity" : 4
    }
]
